…
    ## COVID 2019 data
    ## Updated at 2020-02-28 10:44:10

## 提取省市或国家数据

``` r
# 中国数据
china <- ncov['china']
china
```

    ## # A tibble: 34 x 21
    ##    provinceName provinceShortNa… currentConfirme… confirmedCount suspectedCount
    ##    <chr>        <chr>                       <int>          <int>          <int>
    ##  1 安徽省       安徽                          163            990              0
    ##  2 澳门         澳门                            2             10              0
    ##  3 北京市       北京                          146            410              0
    ##  4 重庆市       重庆                          168            576              0
    ##  5 福建省       福建                           60            296              0
    ##  6 甘肃省       甘肃                            7             91              0
    ##  7 广东省       广东                          406           1348              0
    ##  8 广西壮族自治区… 广西                           82            252              0
    ##  9 贵州省       贵州                           32            146              0
    ## 10 海南省       海南                           30            168              0
    ## # … with 24 more rows, and 16 more variables: curedCount <int>,
    ## #   deadCount <int>, comment <chr>, locationId <int>, statisticsData <chr>,
    ## #   cities <list>, countryName <chr>, countryEnglishName <chr>,
    ## #   continentName <chr>, continentEnglishName <chr>, provinceEnglishName <chr>,
    ## #   updateTime <dttm>, operator <chr>, createTime <dbl>, modifyTime <dbl>,
    ## #   cityName <chr>
…
``` r
# 世界数据
world <- ncov['world']
world
```

    ## # A tibble: 52 x 7
    ##    countryEnglishN… currentConfirme… confirmedCount suspectedCount curedCount
    ##    <chr>                       <int>          <int>          <int>      <int>
    ##  1 Afghanistan                     1              1              0          0
    ##  2 Algeria                         1              1              0          0
    ##  3 Australia                       8             23              0         15
    ##  4 Austria                         5              5              0          0
    ##  5 Bahrain                        33             33              0          0
    ##  6 Belarus                         1              1              0          0
    ##  7 Belgium                         0              1              0          1
    ##  8 Brazil                          1              1              0          0
    ##  9 Canada                         10             14              0          4
    ## 10 China                       39859          78962           2308      36312
    ## # … with 42 more rows, and 2 more variables: deadCount <int>,
    ## #   countryName <chr>
…
