What the Package Does (Title Case) • ncovmap
…
下载ncov数据

ncov <- get_ncov()
ncov

## COVID 2019 data
## Updated at 2020-02-29 07:14:20

提取省市或国家数据

# 中国数据
china <- ncov['china']
china

## # A tibble: 34 x 22
##    provinceName provinceShortNa… currentConfirme… confirmedCount suspectedCount
##    <chr>        <chr>                       <int>          <int>          <int>
##  1 安徽省       安徽                          116            990              0
##  2 澳门         澳门                            2             10              0
##  3 北京市       北京                          132            411              0
##  4 重庆市       重庆                          148            576              0
##  5 福建省       福建                           54            296              0
##  6 甘肃省       甘肃                            7             91              0
##  7 广东省       广东                          369           1349              0
##  8 广西壮族自治区… 广西                           78            252              0
##  9 贵州省       贵州                           32            146              0
## 10 海南省       海南                           20            168              0
## # … with 24 more rows, and 17 more variables: curedCount <int>,
## #   deadCount <int>, comment <chr>, locationId <int>, statisticsData <chr>,
## #   cities <list>, countryName <chr>, countryEnglishName <chr>,
## #   continentName <chr>, continentEnglishName <chr>, provinceEnglishName <chr>,
## #   updateTime <dttm>, operator <chr>, countryShortCode <chr>,
## #   createTime <dbl>, modifyTime <dbl>, cityName <chr>
…
# 世界数据
world <- ncov['world']
world

## # A tibble: 56 x 8
##    countryEnglishN… currentConfirme… confirmedCount suspectedCount curedCount
##    <chr>                       <int>          <int>          <int>      <int>
##  1 Afghanistan                     1              1              0          0
##  2 Algeria                         1              1              0          0
##  3 Australia                      10             25              0         15
##  4 Austria                         5              5              0          0
##  5 Azerbaijan                      1              1              0          0
##  6 Bahrain                        38             38              0          0
##  7 Belarus                         1              1              0          0
##  8 Belgium                         0              1              0          1
##  9 Brazil                          1              1              0          0
## 10 Canada                         11             15              0          4
## # … with 46 more rows, and 3 more variables: deadCount <int>,
## #   countryName <chr>, countryShortCode <chr>
…
